Analyzing Career Mobility in the CMap Dataset: Practical Examples • cmapr
…
1. Loading and Inspecting Specialization Data

The specialization index (SI) quantifies how distinctive a job title
is within its sector.

si_data <- load_sector_specialization(file.path(dataset_dir, "titles/si"))
si_data %>%
  group_by(sector) %>%
  arrange(desc(si)) %>%
  slice_head(n = 10) %>%
  select(sector, title, si)
#> # A tibble: 240 × 3
#> # Groups:   sector [24]
#>    sector             title                         si
#>    <chr>              <chr>                      <dbl>
#>  1 Accounting & Legal Assistant General Attorney 0.988
#>  2 Accounting & Legal Audit Senior Assistant     0.976
#>  3 Accounting & Legal Deputy General Attorney    0.967
#>  4 Accounting & Legal Chartered Legal Executive  0.960
#>  5 Accounting & Legal Trainee Advocate           0.960
#>  6 Accounting & Legal Consultant Solicitor       0.957
#>  7 Accounting & Legal Attorney Partner           0.955
#>  8 Accounting & Legal Litigation Partner         0.951
#>  9 Accounting & Legal Real Estates Attorney      0.943
#> 10 Accounting & Legal Accounting Chief Officer   0.943
#> # ℹ 230 more rows
…
2. Mapping and Summarizing Job Titles

The title mapping data helps you understand how raw job titles are
standardized and grouped.

title_map <- load_title_map(file.path(dataset_dir, "titles/map"))
title_map %>%
  count(sector, title_simplified, sort = TRUE)
#> # A tibble: 418,664 × 3
#>    sector                       title_simplified     n
#>    <chr>                        <chr>            <int>
#>  1 Business Services            Manager          51574
#>  2 Manufacturing                Manager          46876
#>  3 Information Technology       Manager          37014
#>  4 Retail                       Manager          35266
#>  5 Finance                      Manager          25450
#>  6 Oil, Gas, Energy & Utilities Manager          18879
#>  7 Transportation & Logistics   Manager          16136
#>  8 Business Services            Assistant        15550
#>  9 Health Care                  Manager          15223
#> 10 Non-Profit                   Manager          14689
#> # ℹ 418,654 more rows

Tip:

Use this mapping to collapse variant job titles and compute sector-level
frequencies.

title_map %>%
  group_by(sector, title_simplified) %>%
  summarise(total = sum(frequency_simplified, na.rm = TRUE)) %>%
  arrange(sector, desc(total))
#> `summarise()` has grouped output by 'sector'. You can override using the
#> `.groups` argument.
#> # A tibble: 418,664 × 3
#> # Groups:   sector [24]
#>    sector             title_simplified              total
#>    <chr>              <chr>                         <dbl>
#>  1 Accounting & Legal Manager                  2092621896
#>  2 Accounting & Legal Assistant                 746253906
#>  3 Accounting & Legal Accountant                460474380
#>  4 Accounting & Legal Associate                 286909623
#>  5 Accounting & Legal Law Clerk                 244412335
#>  6 Accounting & Legal Administrative Assistant  171775190
#>  7 Accounting & Legal Legal Intern              164257104
#>  8 Accounting & Legal Legal Assistant           150953085
#>  9 Accounting & Legal Director                  126512640
#> 10 Accounting & Legal Attorney                  122948976
#> # ℹ 418,654 more rows
…
